{
    "swagger": "2.0",
    "info": {
        "description": "This is Insurance Portal Api Documentation",
        "version": "1.0.0",
        "title": "Insurance Portal"
    },
    "host": "indiuminsurance.ml",
    "basePath": "/",
    "tags": [
        {
            "name": "Blockdata",
            "description": "Block data",
            "externalDocs": {
                "description": "Find out more",
                "url": "indiuminsurance.ml/api/insurance-portal/get-block-data"
            }
        },
        {
            "name": "BlockCount",
            "description": "Number of Blocks",
            "externalDocs": {
                "description": "Find out more",
                "url": "indiuminsurance.ml/api/insurance-portal/get-total-blocks"
            }
        },
        {
            "name": "BlockDetails",
            "description": "get block details",
            "externalDocs": {
                "description": "Find out more",
                "url": "indiuminsurance.ml/api/insurance-portal/get-block-details"
            }
        },
        {
            "name": "BlockHash",
            "description": "get block hash",
            "externalDocs": {
                "description": "Find out more",
                "url": "indiuminsurance.ml/api/insurance-portal/get-block-hash"
            }
        },
     
     
        {
            "name": "UserSignup",
            "description": "User registration",
            "externalDocs": {
                "description": "Find out more",
                "url": "indiuminsurance.ml/api/insurance-portal/policy-holder-signup"
            }
        },
        {
            "name": "UserSignin",
            "description": "User login",
            "externalDocs": {
                "description": "Find out more",
                "url": "indiuminsurance.ml/api/insurance-portal/user-signin"
            }
        },
        {
            "name": "GetPlans",
            "description": "Get Plans",
            "externalDocs": {
                "description": "Find out more",
                "url": "indiuminsurance.ml/api/insurance-portal/getplans"
            }
        },

        {
            "name": "InsurerSignup",
            "description": "Insurer registration",
            "externalDocs": {
                "description": "Find out more",
                "url": "indiuminsurance.ml/api/insurance-portal/register-insurance-provider"
            }
        },
        {
            "name": "InsurerAddCategory",
            "description": "Adds insurance category",
            "externalDocs": {
                "description": "Find our more",
                "url": "indiuminsurance.ml/api/insurance-portal/insurer-addCategory"
            }
        },
        {
            "name": "InsurerAddPlans",
            "description": "Insurer Adds Insurance Plans",
            "externalDocs": {
                "description": "Find out more",
                "url": "indiuminsurance.ml/api/insurance-portal/insurer-addPlans"
            }
        },
        {
            "name": "BuyInsurance",
            "description": "User's apply for an insurance",
            "externalDocs": {
                "description": "Find out more",
                "url": "indiuminsurance.ml/api/insurance-portal/user-insure"
            }
        },
        {
            "name": "GetInsuredData",
            "description": "Api to retrieve applied insurance details",
            "externalDocs": {
                "description": "Find out more",
                "url": "indiuminsurance.ml/api/insurance-portal/user-getInsured-data"
            }
        },
        {
            "name": "GetVehicleToClaim",
            "description": "Api to get vehicle details for claiming",
            "externalDocs": {
                "description": "Find out more",
                "url": "indiuminsurance.ml/api/insurance-portal/user-claim-insurance-vehicle-data"
            }
        },
        {
            "name": "PostClaimingReason",
            "description": "Api to Post claiming reason",
            "externalDocs": {
                "description": "Find out more",
                "url": "indiuminsurance.ml/api/insurance-portal/user-claim-insurance"
            }
        },
        {
            "name": "InspectorSignup",
            "description": "InspectorSignup",
            "externalDocs": {
                "description": "Find out more",
                "url": "indiuminsurance.ml/api/insurance-portal/inspector-signup"
            }
        },
        {
            "name": "GetClaimPendingRequest",
            "description": "Api to get Claiming approvals",
            "externalDocs": {
                "description": "Find out more",
                "url": "indiuminsurance.ml/api/insurance-portal/inspector-get-claim-request"
            }
        },
        {
            "name": "ApproveClaims",
            "description": "Api to approve claims",
            "externalDocs": {
                "description": "Find out more",
                "url": "indiuminsurance.ml/api/insurance-portal/inspector-approval"
            }
        }
    ],
    "schemes": ["http"],
    "paths": {   
        "/api/insurance-portal/get-block-data": {
            "get": {
                "tags": ["Blockdata"],
                "summary": "Blockdata",
                "description": "",
                "operationId": "get Block data",
                "consumes": ["application/json", "application/xml"],
                "produces": ["application/xml", "application/json"],
                "parameters": [
                    {
                        "in": "query",
                        "name": "query_method",
                        "required": true,
                        "schema": {
                            "type": "string"
                        }
                    },
                    {
                        "in": "query",
                        "name": "vehicleNo",
                        "required": true,
                        "schema": {
                            "type": "string"
                        }
                    }
                ],
                "responses": {
                    "405": {
                        "description": "Invalid input"
                    }
                },
                "security": [
                    {
                        "petstore_auth": ["write:pets", "read:pets"]
                    }
                ]
            }
        },"/api/insurance-portal/get-total-blocks": {
            "get": {
                "tags": ["BlockCount"],
                "summary": "BlockCount",
                "description": "",
                "operationId": "get Block Count",
                "consumes": ["application/json", "application/xml"],
                "produces": ["application/xml", "application/json"],
                "responses": {
                    "405": {
                        "description": "Invalid input"
                    }
                },
                "security": [
                    {
                        "petstore_auth": ["write:pets", "read:pets"]
                    }
                ]
            }
        },"/api/insurance-portal/get-block-details": {
            "get": {
                "tags": ["BlockDetails"],
                "summary": "BlockDetails",
                "description": "",
                "operationId": "get BlockDetails",
                "consumes": ["application/json", "application/xml"],
                "produces": ["application/xml", "application/json"],
                "responses": {
                    "405": {
                        "description": "Invalid input"
                    }
                },
                "security": [
                    {
                        "petstore_auth": ["write:pets", "read:pets"]
                    }
                ]
            }
        },"/api/insurance-portal/get-block-hash": {
            "get": {
                "tags": ["BlockHash"],
                "summary": "get-block-hash",
                "description": "",
                "operationId": "get-block-hash",
                "consumes": ["application/json", "application/xml"],
                "produces": ["application/xml", "application/json"],
                "responses": {
                    "405": {
                        "description": "Invalid input"
                    }
                },
                "security": [
                    {
                        "petstore_auth": ["write:pets", "read:pets"]
                    }
                ]
            }
        },  
        "/api/insurance-portal/policy-holder-signup": {
            "post": {
                "tags": ["UserSignup"],
                "summary": "User Signup",
                "description": "",
                "operationId": "userSignin",
                "consumes": ["application/json", "application/xml"],
                "produces": ["application/xml", "application/json"],
                "parameters": [
                    {
                        "in": "body",
                        "name": "body",
                        "description": "",
                        "required": true,
                        "schema": {
                            "$ref": "#/definitions/userSignup"
                        }
                    }
                ],
                "responses": {
                    "405": {
                        "description": "Invalid input"
                    }
                },
                "security": [
                    {
                        "petstore_auth": ["write:pets", "read:pets"]
                    }
                ]
            }
        },   
        "/api/insurance-portal/user-signin": {
            "post": {
                "tags": ["UserSignin"],
                "summary": "User Signin",
                "description": "",
                "operationId": "userSignin",
                "consumes": ["application/json", "application/xml"],
                "produces": ["application/xml", "application/json"],
                "parameters": [
                    {
                        "in": "body",
                        "name": "body",
                        "description": "",
                        "required": true,
                        "schema": {
                            "$ref": "#/definitions/userSignin"
                        }
                    }
                ],
                "responses": {
                    "405": {
                        "description": "Invalid input"
                    }
                },
                "security": [
                    {
                        "petstore_auth": ["write:pets", "read:pets"]
                    }
                ]
            }
        },
        "/api/insurance-portal/getplans": {
            "get": {
                "tags": ["GetPlans"],
                "summary": "get plans",
                "description": "",
                "operationId": "get plans from providers",
                "consumes": ["application/json", "application/xml"],
                "produces": ["application/xml", "application/json"],
                "responses": {
                    "405": {
                        "description": "Invalid input"
                    }
                },
                "security": [
                    {
                        "petstore_auth": ["write:pets", "read:pets"]
                    }
                ]
            }
        },
        "/api/insurance-portal/register-insurance-provider": {
            "post": {
                "tags": ["InsurerSignup"],
                "summary": "Insurer Signing up",
                "description": "",
                "operationId": "insurerSignup",
                "consumes": ["application/json", "application/xml"],
                "produces": ["application/xml", "application/json"],
                "parameters": [
                    {
                        "in": "body",
                        "name": "body",
                        "description": "",
                        "required": true,
                        "schema": {
                            "$ref": "#/definitions/insurerSignup"
                        }
                    }
                ],
                "responses": {
                    "405": {
                        "description": "Invalid input"
                    }
                },
                "security": [
                    {
                        "petstore_auth": ["write:pets", "read:pets"]
                    }
                ]
            }
        },
        "/api/insurance-portal/insurer-addCategory": {
            "post": {
                "tags": ["InsurerAddCategory"],
                "summary": "",
                "description": "",
                "operationId": "addCategory",
                "consumes": ["application/json", "application/xml"],
                "produces": ["application/xml", "application/json"],
                "parameters": [
                    {
                        "in": "body",
                        "name": "body",
                        "description": "",
                        "required": true,
                        "schema": {
                            "$ref": "#/definitions/addCategory"
                        }
                    }
                ],
                "responses": {
                    "405": {
                        "description": "Invalid input"
                    }
                },
                "security": [
                    {
                        "petstore_auth": ["write:pets", "read:pets"]
                    }
                ]
            }
        },
        "/api/insurance-portal/insurer-addPlans": {
            "post": {
                "tags": ["InsurerAddPlans"],
                "summary": "",
                "description": "",
                "operationId": "addPlans",
                "consumes": ["application/json", "application/xml"],
                "produces": ["application/xml", "application/json"],
                "parameters": [
                    {
                        "in": "body",
                        "name": "body",
                        "description": "",
                        "required": true,
                        "schema": {
                            "$ref": "#/definitions/addPlans"
                        }
                    }
                ],
                "responses": {
                    "405": {
                        "description": "Invalid input"
                    }
                },
                "security": [
                    {
                        "petstore_auth": ["write:pets", "read:pets"]
                    }
                ]
            }
        },
        "/api/insurance-portal/user-insure": {
            "post": {
                "tags": ["BuyInsurance"],
                "summary": "",
                "description": "",
                "operationId": "buyInsurance",
                "consumes": ["application/json", "application/xml"],
                "produces": ["application/xml", "application/json"],
                "parameters": [
                    {
                        "in": "body",
                        "name": "body",
                        "description": "",
                        "required": true,
                        "schema": {
                            "$ref": "#/definitions/buyInsurance"
                        }
                    }
                ],
                "responses": {
                    "405": {
                        "description": "Invalid input"
                    }
                },
                "security": [
                    {
                        "petstore_auth": ["write:pets", "read:pets"]
                    }
                ]
            }
        },
        "/api/insurance-portal/user-getInsured-data": {
            "get": {
                "tags": ["GetInsuredData"],
                "summary": "",
                "description": "",
                "operationId": "getInsuredData",
                "consumes": ["application/json", "application/xml"],
                "produces": ["application/xml", "application/json"],
                "parameters": [
                    {
                        "in": "query",
                        "name": "email",
                        "required": true,
                        "schema": {
                            "type": "string"
                        }
                    }
                ],
                "responses": {
                    "405": {
                        "description": "Invalid input"
                    }
                },
                "security": [
                    {
                        "petstore_auth": ["write:pets", "read:pets"]
                    }
                ]
            }
        },
        "/api/insurance-portal/user-claim-insurance-vehicle-data": {
            "get": {
                "tags": ["GetVehicleToClaim"],
                "summary": "",
                "description": "",
                "operationId": "GetVehicleToClaim",
                "consumes": ["application/json", "application/xml"],
                "produces": ["application/xml", "application/json"],
                "parameters": [
                    {
                        "in": "query",
                        "name": "vehicleNo",
                        "required": true,
                        "schema": {
                            "type": "string"
                        }
                    }
                ],
                "responses": {
                    "405": {
                        "description": "Invalid input"
                    }
                },
                "security": [
                    {
                        "petstore_auth": ["write:pets", "read:pets"]
                    }
                ]
            }
        },
        "/api/insurance-portal/user-claim-insurance": {
            "post": {
                "tags": ["PostClaimingReason"],
                "summary": "",
                "description": "",
                "operationId": "postClaimingReason",
                "consumes": ["multipart/form-data"],
                "produces": ["application/xml", "application/json"],
                "parameters": [
                    {
                        "in": "body",
                        "name": "body",
                        "description": "",
                        "required": true,
                        "schema": {
                            "$ref": "#/definitions/postClaimingReason"
                        }
                    },
                    {
                        "in": "formData",
                        "name": "claim_reason_image",
                        "type": "file",
                        "description": "Upload Image",
                        "required": true,
                        "schema": {
                            "$ref": "#/definitions/postClaimingReason"
                        }
                    }
                ],
                "responses": {
                    "405": {
                        "description": "Invalid input"
                    }
                },
                "security": [
                    {
                        "petstore_auth": ["write:pets", "read:pets"]
                    }
                ]
            }
        },
        "/api/insurance-portal/user-claim-status": {
            "get": {
                "tags": ["GetVehicleClaimStatus"],
                "summary": "",
                "description": "",
                "operationId": "GetVehicleClaimStatus",
                "consumes": ["application/json", "application/xml"],
                "produces": ["application/xml", "application/json"],
                "parameters": [
                    {
                        "in": "query",
                        "name": "email",
                        "required": true,
                        "schema": {
                            "type": "string"
                        }
                    }
                ],
                "responses": {
                    "405": {
                        "description": "Invalid input"
                    }
                },
                "security": [
                    {
                        "petstore_auth": ["write:pets", "read:pets"]
                    }
                ]
            }
        },
        "/api/insurance-portal/inspector-signup": {
            "post": {
                "tags": ["InspectorSignup"],
                "summary": "",
                "description": "",
                "operationId": "Inspector Signup",
                "consumes": ["application/json", "application/xml"],
                "produces": ["application/xml", "application/json"],
                "parameters": [
                    {
                        "in": "body",
                        "name": "body",
                        "description": "",
                        "required": true,
                        "schema": {
                            "$ref": "#/definitions/InspectorSignup"
                        }
                    }
                ],
                "responses": {
                    "405": {
                        "description": "Invalid input"
                    }
                },
                "security": [
                    {
                        "petstore_auth": ["write:pets", "read:pets"]
                    }
                ]
            }
        },
        "/api/insurance-portal/inspector-get-claim-request": {
            "get": {
                "tags": ["GetClaimPendingRequest"],
                "summary": "",
                "description": "",
                "operationId": "GetClaimPendingRequest",
                "consumes": ["application/json", "application/xml"],
                "produces": ["application/xml", "application/json"],
                "parameters": [
                    {
                        "in": "",
                        "name": "",
                        "required": true,
                        "schema": {
                            "type": "string"
                        }
                    }
                ],
                "responses": {
                    "405": {
                        "description": "Invalid input"
                    }
                },
                "security": [
                    {
                        "petstore_auth": ["write:pets", "read:pets"]
                    }
                ]
            }
        },
        "/api/insurance-portal/inspector-approval": {
            "post": {
                "tags": ["ApproveClaims"],
                "summary": "",
                "description": "",
                "operationId": "approveClaims",
                "consumes": ["application/json", "application/xml"],
                "produces": ["application/xml", "application/json"],
                "parameters": [
                    {
                        "in": "query",
                        "name": "vehicleNo",
                        "required": true,
                        "schema": {
                            "type": "string"
                        }
                    },
                    {
                        "in": "body",
                        "name": "body",
                        "description": "",
                        "required": true,
                        "schema": {
                            "$ref": "#/definitions/approveClaims"
                        }
                    }
                ],
                "responses": {
                    "405": {
                        "description": "Invalid input"
                    }
                },
                "security": [
                    {
                        "petstore_auth": ["write:pets", "read:pets"]
                    }
                ]
            }
        }
    },
    "definitions": {
        "blockdata": {
            "type": "object",
            "required": [
                "data",
                "query"
                
            ],
            "properties": {
                "data": {
                    "type": "string"
                },
                "query": {
                    "type": "string"
                }
            }
        }, 
        "userSignup": {
            "type": "object",
            "required": [
                "firstname",
                "lastname",
                "email",
                "role",
                "password"
                
            ],
            "properties": {
                "firstname": {
                    "type": "string"
                },
                "lastname": {
                    "type": "string"
                },
                "email": {
                    "type": "string"
                },
                "role": {
                    "type": "string"
                },
                "password": {
                    "type": "string"
                }
            }
        },
        "userSignin": {
            "type": "object",
            "required": [
                "email",
                "password",
                "role"
                
            ],
            "properties": {
                "email": {
                    "type": "string"
                },
                "password": {
                    "type": "string"
                },
                "role":{
                    "type":"string"
                }
            }
        }, 
        "insurerSignup": {
            "type": "object",
            "required": [
                "orgName",
                "orgUrl",
                "email",
                "password",
                "contact",
                "role"
            ],
            "properties": {
                "orgName": {
                    "type": "string"
                },
                "orgUrl": {
                    "type": "string"
                },
                "email": {
                    "type": "string"
                },
                "password": {
                    "type": "string"
                },
                "contact": {
                    "type": "string"
                },
                "role": {
                    "type": "string"
                }
            }
        },
        "addCategory": {
            "type": "object",
            "required": ["insurance_provider_name","category"],
            "properties": {
                "insurance_provider_name": {
                    "type": "string"
                },
                "category": {
                    "type": "string"
                }
            }
        },
        "addPlans": {
            "type": "object",
            "required": ["insurance_for","insurance_plan_year","sum_insured","yearly_premium","insurance_category"],
            "properties": {
                "category": {
                    "type": "string"
                },
                "insurance_provider_name": {
                    "type": "string"
                },
                "insurance_for": {
                    "type": "string"
                },
                "insurance_plan_year": {
                    "type": "string"
                },
                "sum_insured": {
                    "type": "string"
                },
                "yearly_premium": {
                    "type": "string"
                }
            }
        },
        "postClaimingReason": {
            "type": "object",
            "required": ["vehicleNo","claim_reason","claim_reason_image"],
            "properties": {
                "vehicleNo": {
                    "type": "string"
                },
                "claim_reason": {
                    "type": "string"
                }
            }
        },
        "buyInsurance": {
            "type": "object",
            "required": ["email","owner_name","vehicle_model","vehicle_number","vehicle_price","purchased_date","accident_involved","comments","insurance_plans"],
            "properties": {
                "insurance_for":{
                    "type": "string"
                },
                "insurance_plan_year": {
                    "type": "string"
                },
                "email": {
                    "type": "string"
                },
                "owner_name": {
                    "type": "string"
                },
                "vehicle_model": {
                    "type": "string"
                },
                "vehicle_number": {
                    "type": "string"
                },
                "vehicle_price": {
                    "type": "string"
                },
                "purchased_date": {
                    "type": "string"
                },
                "accident_involved": {
                    "type": "string"
                },
                "comments": {
                    "type": "string"
                }
            }
        },
        "InspectorSignup": {
            "type": "object",
            "required": [
                "firstname",
                "lastname",
                "email",
                "password",
                "role"
            ],
            "properties": {
                "firstname": {
                    "type": "string"
                },
                "lastname": {
                    "type": "string"
                },
                "email": {
                    "type": "string"
                },
                "password": {
                    "type": "string"
                },
                "role": {
                    "type": "string"
                }
            }
        },
        "approveClaims": {
            "type": "object",
            "required": ["approve"],
            "properties": {
                "approve": {
                    "type": "string"
                }
            }
        }
    }
}
